^E:\ISNE LAB2\LAB3TEST\CONSOLEAPPLICATION1\CONSOLEAPPLICATION1\SOURCE.CPP
E:\ISNE LAB2\LAB3TEST\CONSOLEAPPLICATION1\CONSOLEAPPLICATION1\DEBUG\VC110.PDB
E:\ISNE LAB2\LAB3TEST\CONSOLEAPPLICATION1\CONSOLEAPPLICATION1\DEBUG\SOURCE.OBJ
